Compare Genotype and Phenotype Data by Sample ID — compare_geno_pheno_id • AMRgen
…
#> [5209] "SAMN07291521" "SAMN11953785" "SAMN11953781" "SAMN11953780"
#> [5213] "SAMN11953778" "SAMN11953777" "SAMN11953776" "SAMN11953774"
#> [5217] "SAMN11954013" "SAMN11953796" "SAMN11953801" "SAMN11953802"
#> [5221] "SAMN11953803" "SAMN11953804" "SAMN11953805" "SAMN11953797"
#> [5225] "SAMN11953800" "SAMN11953798" "SAMN11953893" "SAMN11953895"
#> [5229] "SAMN11953909" "SAMN11953883" "SAMN11953896" "SAMN11953991"
#> [5233] "SAMN05170083" "SAMN28235857" "SAMN04448242" "SAMN16887358"
#> [5237] "SAMN16887354" "SAMN16887373" "SAMN16887371" "SAMN16887369"
#> [5241] "SAMN16887362" "SAMN28235860" "SAMN28235843" "SAMN28235841"
#> [5245] "SAMN28235839" "SAMN28235837" "SAMN28235862" "SAMN28235861"
#> [5249] "SAMN28235859" "SAMN28235858" "SAMN28235856" "SAMN28235854"
#> [5253] "SAMN28235852" "SAMN28235850" "SAMN28235848" "SAMN28235846"
#> [5257] "SAMN28235834" "SAMN03892121"
print(result$geno_matched)
#> # A tibble: 50,720 × 36
#>    Name     gene  mutation node  `variation type` marker marker.label drug_agent
#>    <chr>    <chr> <chr>    <chr> <chr>            <chr>  <chr>        <ab>      
#>  1 SAMN031… blaEC NA       blaEC Gene presence d… blaEC  blaEC        NA        
#>  2 SAMN031… acrF  NA       acrF  Gene presence d… acrF   acrF         NA        
#>  3 SAMN031… glpT  Glu448L… glpT  Protein variant… glpT_… glpT:Glu448… FOS       
#>  4 SAMN031… floR  NA       floR  Gene presence d… floR   floR         CHL       
#>  5 SAMN031… floR  NA       floR  Gene presence d… floR   floR         FLR       
#>  6 SAMN031… mdtM  NA       mdtM  Gene presence d… mdtM   mdtM         NA        
#>  7 SAMN031… blaT… NA       blaT… Gene presence d… blaTE… blaTEM-1     NA        
#>  8 SAMN031… sul2  NA       sul2  Gene presence d… sul2   sul2         SSS       
#>  9 SAMN031… aph(… NA       aph(… Gene presence d… aph(3… aph(3'')-Ib  STR1      
#> 10 SAMN031… aph(… NA       aph(… Gene presence d… aph(6… aph(6)-Id    STR1      
#> # ℹ 50,710 more rows
#> # ℹ 28 more variables: drug_class <chr>, `Protein identifier` <lgl>,
#> #   `Contig id` <chr>, Start <dbl>, Stop <dbl>, Strand <chr>,
#> #   `Gene symbol` <chr>, `Sequence name` <chr>, Scope <chr>,
#> #   `Element type` <chr>, `Element subtype` <chr>, Class <chr>, Subclass <chr>,
#> #   Method <chr>, `Target length` <dbl>, `Reference sequence length` <dbl>,
#> #   `% Coverage of reference sequence` <dbl>, …
print(result$pheno_matched)
#> # A tibble: 5,258 × 7
#>    id           spp_pheno    pheno drug_agent     mic  disk guideline
#>    <chr>        <mo>         <sir> <ab>         <mic> <dsk> <chr>    
#>  1 SAMN11638310 B_ESCHR_COLI   R   CIP        256.000    NA CLSI     
#>  2 SAMN18634044 B_ESCHR_COLI   NI  CIP        <=1.000    NA CLSI     
#>  3 SAMN04122821 B_ESCHR_COLI   R   CIP          1.000    NA CLSI     
#>  4 SAMN04279649 B_ESCHR_COLI   R   CIP        >=4.000    NA CLSI     
#>  5 SAMN04279648 B_ESCHR_COLI   R   CIP        >=4.000    NA CLSI     
#>  6 SAMN04339728 B_ESCHR_COLI   R   CIP          1.000    NA CLSI     
#>  7 SAMN04393387 B_ESCHR_COLI   R   CIP        >=4.000    NA CLSI     
#>  8 SAMN04455486 B_ESCHR_COLI   S   CIP        <=0.015    NA CLSI     
#>  9 SAMN04455488 B_ESCHR_COLI   S   CIP        <=0.015    NA CLSI     
#> 10 SAMN04455487 B_ESCHR_COLI   S   CIP        <=0.015    NA CLSI     
#> # ℹ 5,248 more rows
…
