AnalysingGenoPhenoData • AMRgen
…
This vignette walks through a basic workflow using example datasets
included in the AMRgen package, and explains how to wrangle
your own data files into the right formats to use the same workflow.

1. Genotype table

The import_amrfp() function lets you load genotype data
from AMRFinderPlus outputs, and process it to generate an object with
the key columns needed to work with the AMRgen package.

# Example AMRfinderplus genotyping output
ecoli_geno_raw
#> # A tibble: 53,591 × 10
#>    Name    `Gene symbol` `Hierarchy node` `Element type` `Element subtype` Class
#>    <chr>   <chr>         <chr>            <chr>          <chr>             <chr>
#>  1 SAMN03… blaEC         blaEC            AMR            AMR               BETA…
#>  2 SAMN03… acrF          acrF             AMR            AMR               EFFL…
#>  3 SAMN03… glpT_E448K    glpT             AMR            POINT             FOSF…
#>  4 SAMN03… floR          floR             AMR            AMR               PHEN…
#>  5 SAMN03… mdtM          mdtM             AMR            AMR               EFFL…
#>  6 SAMN03… blaTEM-1      blaTEM-1         AMR            AMR               BETA…
#>  7 SAMN03… sul2          sul2             AMR            AMR               SULF…
#>  8 SAMN03… aph(3'')-Ib   aph(3'')-Ib      AMR            AMR               AMIN…
#>  9 SAMN03… aph(6)-Id     aph(6)-Id        AMR            AMR               AMIN…
#> 10 SAMN03… tet(A)        tet(A)           AMR            AMR               TETR…
#> # ℹ 53,581 more rows
#> # ℹ 4 more variables: Subclass <chr>, `% Coverage of reference sequence` <dbl>,
#> #   `% Identity to reference sequence` <dbl>,
#> #   `Accession of closest sequence` <chr>
…
2. Phenotype table

The import_ncbi_ast() function imports AST data from
NCBI format files.

# Example E. coli AST data from NCBI
# This one has already been imported and phenotypes interpreted from assay data
# You can make your own from NCBI format data using:
#    import_ncbi_ast("filepath/AST.tsv", interpret=T)
ecoli_ast
#> # A tibble: 15,320 × 24
#>    id           spp_pheno    drug_agent ecoff pheno     mic  disk guideline
#>    <chr>        <mo>         <ab>       <chr> <sir>   <mic> <dsk> <chr>    
#>  1 SAMN36015110 B_ESCHR_COLI CIP        NWT     R   <128.00    NA CLSI     
#>  2 SAMN07988997 B_ESCHR_COLI IPM        NWT     S    <=1.00    NA CLSI     
#>  3 SAMN11638310 B_ESCHR_COLI CIP        NWT     R    256.00    NA CLSI     
#>  4 SAMN05729964 B_ESCHR_COLI CIP        NWT     R     64.00    NA CLSI     
#>  5 SAMN18634044 B_ESCHR_COLI CIP        NWT     R    <=1.00    NA CLSI     
#>  6 SAMN26232716 B_ESCHR_COLI CIP        NA      NA       NA    NA CLSI     
#>  7 SAMN26232716 B_ESCHR_COLI CIP        NWT     R        NA    20 CLSI     
#>  8 SAMN10620111 B_ESCHR_COLI CIP        NWT     R    >=4.00    NA CLSI     
#>  9 SAMN10620168 B_ESCHR_COLI CIP        NWT     R    >=4.00    NA CLSI     
#> 10 SAMN10620104 B_ESCHR_COLI CIP        NWT     S    <=0.25    NA CLSI     
#> # ℹ 15,310 more rows
#> # ℹ 16 more variables: `Organism group` <chr>, `Scientific name` <chr>,
#> #   `Isolation type` <chr>, Location <chr>, `Isolation source` <chr>,
#> #   Isolate <chr>, Antibiotic <chr>, `Resistance phenotype` <chr>,
#> #   `Measurement sign` <chr>, `MIC (mg/L)` <dbl>, `Disk diffusion (mm)` <dbl>,
#> #   `Laboratory typing platform` <chr>, Vendor <chr>,
#> #   `Laboratory typing method version or reagent` <chr>, …
…
# Extract model summary details using `logistf_details()`
modelR_summary <- logistf_details(modelR)

modelR_summary
#> # A tibble: 46 × 5
#>    marker        est ci.lower ci.upper       pval
#>  * <chr>       <dbl>    <dbl>    <dbl>      <dbl>
#>  1 (Intercept) -4.96  -5.34     -4.62  0         
#>  2 gyrA_S83L    4.11   3.67      4.57  0         
#>  3 gyrA_D87Y    2.80   0.474     4.65  0.0216    
#>  4 gyrA_D87N    3.62   1.75      5.07  0.000822  
#>  5 parC_S80I    3.97   1.89      8.83  0.00000213
#>  6 parE_S458A  -3.49  -8.55     -0.532 0.0144    
#>  7 parC_S80R    1.71   0.0519    4.03  0.0427    
#>  8 parE_L416F   1.91  -1.45      6.92  0.225     
#>  9 qnrB6        4.53   1.65      7.18  0.00451   
#> 10 gyrA_D87G    1.55  -6.99      3.94  0.516     
#> # ℹ 36 more rows
…
# Output tables
models$modelR
#> # A tibble: 22 × 5
#>    marker        est ci.lower ci.upper     pval
#>    <chr>       <dbl>    <dbl>    <dbl>    <dbl>
#>  1 (Intercept) -4.83   -5.17   -4.50   0       
#>  2 gyrA_S83L    4.00    3.57    4.44   0       
#>  3 gyrA_D87Y    2.53    0.553   4.50   0.0121  
#>  4 gyrA_D87N    2.69    1.06    4.32   0.00119 
#>  5 parC_S80I    3.03    1.42    4.65   0.000231
#>  6 parE_S458A  -2.05   -4.18    0.0724 0.0583  
#>  7 parC_S80R    1.70   -0.131   3.53   0.0687  
#>  8 parE_L416F   1.83   -1.26    4.92   0.245   
#>  9 parC_S57T   -1.29   -4.22    1.64   0.388   
#> 10 soxS_A12S    2.32   -0.282   4.93   0.0805  
#> # ℹ 12 more rows
#> Use ggplot2::autoplot() on this output to visualise

models$modelNWT
#> # A tibble: 22 × 5
#>    marker           est ci.lower ci.upper    pval
#>    <chr>          <dbl>    <dbl>    <dbl>   <dbl>
#>  1 (Intercept) -1.09     -1.17      -1.01 0      
#>  2 gyrA_S83L    2.05      1.65       2.45 0      
#>  3 gyrA_D87Y    0.584    -1.02       2.19 0.476  
#>  4 gyrA_D87N    2.06      0.616      3.51 0.00519
#>  5 parC_S80I    2.81      0.319      5.30 0.0271 
#>  6 parE_S458A  -1.61     -4.38       1.17 0.257  
#>  7 parC_S80R    1.08     -1.77       3.92 0.458  
#>  8 parE_L416F  -0.00272  -3.06       3.06 0.999  
#>  9 parC_S57T    0.782     0.173      1.39 0.0119 
#> 10 soxS_A12S    1.96      0.0867     3.84 0.0403 
#> # ℹ 12 more rows
#> Use ggplot2::autoplot() on this output to visualise

# Note the matrix output is the same as cip_bin, but without the MIC data as this is not required
#    for logistic regression.
models$bin_mat
#> # A tibble: 5,258 × 49
#>    id       pheno     R   NWT gyrA_S83L gyrA_D87Y gyrA_D87N parC_S80I parE_S458A
#>    <chr>    <sir> <dbl> <dbl>     <dbl>     <dbl>     <dbl>     <dbl>      <dbl>
#>  1 SAMN031…   S       0     0         0         0         0         0          0
#>  2 SAMN031…   S       0     0         0         0         0         0          0
#>  3 SAMN031…   S       0     0         0         0         0         0          0
#>  4 SAMN031…   S       0     0         1         0         0         0          0
#>  5 SAMN031…   S       0     0         0         1         0         0          0
#>  6 SAMN031…   S       0     0         0         0         0         0          0
#>  7 SAMN031…   S       0     0         0         0         0         0          0
#>  8 SAMN031…   R       1     1         1         0         1         1          1
#>  9 SAMN031…   S       0     0         1         0         0         0          0
#> 10 SAMN031…   R       1     1         1         0         1         1          1
#> # ℹ 5,248 more rows
#> # ℹ 40 more variables: parC_S80R <dbl>, parE_L416F <dbl>, qnrB6 <dbl>,
#> #   gyrA_D87G <dbl>, parC_S57T <dbl>, parC_E84A <dbl>, soxS_A12S <dbl>,
#> #   qnrB2 <dbl>, qnrS2 <dbl>, parC_E84K <dbl>, parC_A56T <dbl>, qnrB19 <dbl>,
#> #   `aac(6')-Ib-cr5` <dbl>, parC_E84V <dbl>, parE_I529L <dbl>,
#> #   parE_S458T <dbl>, parE_E460D <dbl>, parC_E84G <dbl>, qnrS1 <dbl>,
#> #   marR_S3N <dbl>, `aac(6')-Ib-cr` <dbl>, soxR_R20H <dbl>, qnrB1 <dbl>, …
…
# Output table
soloPPV_cipro$solo_stats
#> # A tibble: 44 × 8
#>    marker         category     x     n    ppv      se ci.lower ci.upper
#>    <chr>          <chr>    <dbl> <int>  <dbl>   <dbl>    <dbl>    <dbl>
#>  1 aac(6')-Ib-cr5 R            0     1 0      0         0        0     
#>  2 gyrA_D87G      R            0     4 0      0         0        0     
#>  3 gyrA_D87N      R            2     6 0.333  0.192     0        0.711 
#>  4 gyrA_D87Y      R            0     4 0      0         0        0     
#>  5 gyrA_S83A      R            0    13 0      0         0        0     
#>  6 gyrA_S83L      R           29   108 0.269  0.0426    0.185    0.352 
#>  7 marR_S3N       R           13   524 0.0248 0.00679   0.0115   0.0381
#>  8 parC_A56T      R            0     6 0      0         0        0     
#>  9 parC_S57T      R            0    40 0      0         0        0     
#> 10 parE_D475E     R            0    91 0      0         0        0     
#> # ℹ 34 more rows

# Interim matrices with data used to compute stats and plots
soloPPV_cipro$solo_binary
#> # A tibble: 1,009 × 8
#>    id           pheno   mic  disk     R   NWT marker    value
#>    <chr>        <sir> <mic> <dsk> <dbl> <dbl> <chr>     <dbl>
#>  1 SAMN03177618   S    0.25    NA     0     0 gyrA_S83L     1
#>  2 SAMN03177619   S    0.12    NA     0     0 gyrA_D87Y     1
#>  3 SAMN03177623   S    0.25    NA     0     0 gyrA_S83L     1
#>  4 SAMN03177631   S    0.25    NA     0     0 gyrA_S83L     1
#>  5 SAMN03177635   S    0.25    NA     0     0 gyrA_S83L     1
#>  6 SAMN03177637   S    0.25    NA     0     0 gyrA_S83L     1
#>  7 SAMN03177638   S    0.25    NA     0     0 qnrB6         1
#>  8 SAMN03177639   S    0.12    NA     0     0 gyrA_S83L     1
#>  9 SAMN03177643   S    0.25    NA     0     0 gyrA_S83L     1
#> 10 SAMN03177646   S    0.25    NA     0     0 gyrA_S83L     1
#> # ℹ 999 more rows

soloPPV_cipro$amr_binary
#> # A tibble: 5,258 × 51
#>    id    pheno     mic  disk     R   NWT gyrA_S83L gyrA_D87Y gyrA_D87N parC_S80I
#>    <chr> <sir>   <mic> <dsk> <dbl> <dbl>     <dbl>     <dbl>     <dbl>     <dbl>
#>  1 SAMN…   S   <=0.015    NA     0     0         0         0         0         0
#>  2 SAMN…   S   <=0.015    NA     0     0         0         0         0         0
#>  3 SAMN…   S   <=0.015    NA     0     0         0         0         0         0
#>  4 SAMN…   S     0.250    NA     0     0         1         0         0         0
#>  5 SAMN…   S     0.120    NA     0     0         0         1         0         0
#>  6 SAMN…   S   <=0.015    NA     0     0         0         0         0         0
#>  7 SAMN…   S   <=0.015    NA     0     0         0         0         0         0
#>  8 SAMN…   R    >4.000    NA     1     1         1         0         1         1
#>  9 SAMN…   S     0.250    NA     0     0         1         0         0         0
#> 10 SAMN…   R    >4.000    NA     1     1         1         0         1         1
#> # ℹ 5,248 more rows
#> # ℹ 41 more variables: parE_S458A <dbl>, parC_S80R <dbl>, parE_L416F <dbl>,
#> #   qnrB6 <dbl>, gyrA_D87G <dbl>, parC_S57T <dbl>, parC_E84A <dbl>,
#> #   soxS_A12S <dbl>, qnrB2 <dbl>, qnrS2 <dbl>, parC_E84K <dbl>,
#> #   parC_A56T <dbl>, qnrB19 <dbl>, `aac(6')-Ib-cr5` <dbl>, parC_E84V <dbl>,
#> #   parE_I529L <dbl>, parE_S458T <dbl>, parE_E460D <dbl>, parC_E84G <dbl>,
#> #   qnrS1 <dbl>, marR_S3N <dbl>, `aac(6')-Ib-cr` <dbl>, soxR_R20H <dbl>, …
…
# Output table
cipro_mic_upset$summary
#> # A tibble: 110 × 8
#>    marker_list             marker_count median   q25   q75     ppv     R     n
#>    <chr>                          <dbl>  <dbl> <dbl> <dbl>   <dbl> <dbl> <int>
#>  1 ""                                 0  0.015 0.015  0.25 0.00757    26  3436
#>  2 "qnrB"                             1  2     2      2    1           1     1
#>  3 "qnrB7"                            1  1     1      1    1           1     1
#>  4 "parE_E460K, gyrA_S83W"            2  4     4      4    1           1     1
#>  5 "parE_D475E"                       1  0.015 0.015  0.5  0           0    91
#>  6 "qnrA1"                            1  0.12  0.12   0.12 0           0     2
#>  7 "gyrA_S83A"                        1  0.5   0.5    0.5  0           0    13
#>  8 "qnrB4"                            1  0.5   0.5    0.75 0.286       2     7
#>  9 "parE_I355T"                       1  0.015 0.015  0.5  0           0    40
#> 10 "marR_S3N"                         1  0.5   0.5    0.5  0.0248     13   524
#> # ℹ 100 more rows

7. Download reference MIC distributions and compare to your
data

# get MIC distribution for ciprofloxacin, for all organisms
get_eucast_mic_distribution("cipro")
#> # A tibble: 2,033 × 4
#>    microorganism              microorganism_code   mic count
#>    <chr>                      <mo>               <mic> <int>
#>  1 Achromobacter xylosoxidans B_ACHRMB_XYLS      0.002     0
#>  2 Achromobacter xylosoxidans B_ACHRMB_XYLS      0.004     0
#>  3 Achromobacter xylosoxidans B_ACHRMB_XYLS      0.008     0
#>  4 Achromobacter xylosoxidans B_ACHRMB_XYLS      0.016     0
#>  5 Achromobacter xylosoxidans B_ACHRMB_XYLS      0.030     0
#>  6 Achromobacter xylosoxidans B_ACHRMB_XYLS      0.060     0
#>  7 Achromobacter xylosoxidans B_ACHRMB_XYLS      0.125     0
#>  8 Achromobacter xylosoxidans B_ACHRMB_XYLS      0.250     1
#>  9 Achromobacter xylosoxidans B_ACHRMB_XYLS      0.500     0
#> 10 Achromobacter xylosoxidans B_ACHRMB_XYLS      1.000     6
#> # ℹ 2,023 more rows
…
# Compare reference distribution to random test data
my_mic_values <- AMR::random_mic(500)
comparison <- compare_mic_with_eucast(my_mic_values, ab = "cipro", mo = "E. coli")
#> Joining with `by = join_by(value)`
comparison
#> # A tibble: 25 × 3
#>    value    user eucast
#>  * <fct>   <int>  <int>
#>  1 <=0.001    35      0
#>  2 0.002      31     14
#>  3 0.004       0    189
#>  4 0.005      25      0
#>  5 0.008       0   3952
#>  6 0.01       20      0
#>  7 0.016       0   7238
#>  8 0.025      32      0
#>  9 0.03        0   1355
#> 10 0.06        0    356
#> # ℹ 15 more rows
…
# Compare reference distribution to example E. coli data
ecoli_cip <- ecoli_ast$mic[ecoli_ast$drug_agent == "CIP"]
comparison <- compare_mic_with_eucast(ecoli_cip, ab = "cipro", mo = "E. coli")
#> Joining with `by = join_by(value)`
comparison
#> # A tibble: 36 × 3
#>    value    user eucast
#>  * <fct>   <int>  <int>
#>  1 0.002       0     14
#>  2 0.004       0    189
#>  3 0.008       0   3952
#>  4 <0.015     41      0
#>  5 <=0.015  2642      0
#>  6 0.016       0   7238
#>  7 0.03       69   1355
#>  8 <=0.06     11      0
#>  9 0.06        5    356
#> 10 0.12       34      0
#> # ℹ 26 more rows
…
